{
  "photos": {
    "page": 1,
    "pages": 3,
    "perpage": 10,
    "total": "24",
    "photo": [
      {
        "id": "40140055383",
        "owner": "75438274@N03",
        "secret": "8edb995329",
        "server": "7807",
        "farm": 8,
        "title": "Hot Club",
        "ispublic": 1,
        "isfriend": 0,
        "isfamily": 0,
        "dateupload": "1550252886",
        "lastupdate": "1550253049",
        "longitude": "71.418884",
        "latitude": "41.825226"
      },
      {
        "id": "33229487568",
        "owner": "75438274@N03",
        "secret": "a745be9f02",
        "server": "7906",
        "farm": 8,
        "title": "Nijmegen",
        "ispublic": 1,
        "isfriend": 0,
        "isfamily": 0,
        "dateupload": "1550252423",
        "lastupdate": "1550253022",
        "longitude": "5.8372264",
        "latitude": "51.8125626"
      },
      {
        "id": "29343349365",
        "owner": "75438274@N03",
        "secret": "c157b11051",
        "server": "8315",
        "farm": 9,
        "title": "Gaia 2016 - Pinup",
        "ispublic": 1,
        "isfriend": 0,
        "isfamily": 0,
        "dateupload": "1472580086",
        "lastupdate": "1472738987"
      },
      {
        "id": "28938723840",
        "owner": "75438274@N03",
        "secret": "90db5fcdc3",
        "server": "7696",
        "farm": 8,
        "title": "Marley's Legacy",
        "ispublic": 1,
        "isfriend": 0,
        "isfamily": 0,
        "dateupload": "1472146990",
        "lastupdate": "1472146991"
      },
      {
        "id": "10649248434",
        "owner": "75438274@N03",
        "secret": "3594eb4650",
        "server": "7299",
        "farm": 8,
        "title": "koiBlonde",
        "ispublic": 1,
        "isfriend": 0,
        "isfamily": 0,
        "dateupload": "1383495696",
        "lastupdate": "1415916902"
      },
      {
        "id": "9125709547",
        "owner": "75438274@N03",
        "secret": "0a1fb3235c",
        "server": "7420",
        "farm": 8,
        "title": "Return to Egypt",
        "ispublic": 1,
        "isfriend": 0,
        "isfamily": 0,
        "dateupload": "1372090817",
        "lastupdate": "1415916902"
      },
      {
        "id": "9127880354",
        "owner": "75438274@N03",
        "secret": "aa854a5e7f",
        "server": "7339",
        "farm": 8,
        "title": "Glamour Ghosts",
        "ispublic": 1,
        "isfriend": 0,
        "isfamily": 0,
        "dateupload": "1372090816",
        "lastupdate": "1415221299"
      },
      {
        "id": "9127866456",
        "owner": "75438274@N03",
        "secret": "4e6843ae3f",
        "server": "7415",
        "farm": 8,
        "title": "Womantis",
        "ispublic": 1,
        "isfriend": 0,
        "isfamily": 0,
        "dateupload": "1372090333",
        "lastupdate": "1415221328"
      },
      {
        "id": "9127866492",
        "owner": "75438274@N03",
        "secret": "6e3af40c53",
        "server": "3755",
        "farm": 4,
        "title": "Sky Horses Outside of Boston",
        "ispublic": 1,
        "isfriend": 0,
        "isfamily": 0,
        "dateupload": "1372090332",
        "lastupdate": "1415221356"
      },
      {
        "id": "9127866608",
        "owner": "75438274@N03",
        "secret": "f887a2c01e",
        "server": "5495",
        "farm": 6,
        "title": "The Pink Elephant's Pixie",
        "ispublic": 1,
        "isfriend": 0,
        "isfamily": 0,
        "dateupload": "1372090331",
        "lastupdate": "1415221390"
      }
    ]
  },
  "stat": "ok"
}
